Calculadora/calculadora/simulation/qsim/calculadora.msim.vcd
$comment
	File created using the following command:
		vcd file calculadora.msim.vcd -direction
$end
$date
	Thu Jun 15 19:31:40 2023
$end
$version
	ModelSim Version 10.5b
$end
$timescale
	1ps
$end

$scope module calculadora_vlg_vec_tst $end
$var reg 1 ! clk $end
$var reg 1 " ctrl $end
$var reg 4 # E [3:0] $end
$var wire 1 $ Cout $end
$var wire 1 % M [3] $end
$var wire 1 & M [2] $end
$var wire 1 ' M [1] $end
$var wire 1 ( M [0] $end
$var wire 1 ) S [3] $end
$var wire 1 * S [2] $end
$var wire 1 + S [1] $end
$var wire 1 , S [0] $end

$scope module i1 $end
$var wire 1 - gnd $end
$var wire 1 . vcc $end
$var wire 1 / unknown $end
$var tri1 1 0 devclrn $end
$var tri1 1 1 devpor $end
$var tri1 1 2 devoe $end
$var wire 1 3 ~QUARTUS_CREATED_GND~I_combout $end
$var wire 1 4 ctrl~input_o $end
$var wire 1 5 E[1]~input_o $end
$var wire 1 6 inst|inst5~combout $end
$var wire 1 7 E[2]~input_o $end
$var wire 1 8 inst|inst6~combout $end
$var wire 1 9 E[3]~input_o $end
$var wire 1 : inst|inst7~combout $end
$var wire 1 ; clk~input_o $end
$var wire 1 < inst2|inst~0_combout $end
$var wire 1 = inst2|inst~feeder_combout $end
$var wire 1 > inst2|inst~q $end
$var wire 1 ? inst2|inst1~0_combout $end
$var wire 1 @ inst2|inst1~q $end
$var wire 1 A E[0]~input_o $end
$var wire 1 B inst|inst|inst3~0_combout $end
$var wire 1 C inst|inst3|inst3~combout $end
$var wire 1 D inst3|inst35|inst20~combout $end
$var wire 1 E inst3|inst42~0_combout $end
$var wire 1 F inst|inst3|inst1~combout $end
$var wire 1 G inst|inst2|inst1~combout $end
$var wire 1 H inst|inst1|inst1~combout $end
$var wire 1 I inst|inst|inst~combout $end
$upscope $end
$upscope $end
$enddefinitions $end
#0
$dumpvars
0!
0"
b0 #
0$
0(
0'
0&
1%
0,
0+
0*
1)
0-
1.
x/
10
11
12
03
04
05
06
07
08
09
0:
0;
1<
1=
0>
1?
0@
0A
0B
0C
0D
0E
0F
0G
0H
0I
$end
#100000
1!
b1 #
1;
1A
1I
1,
#200000
b11 #
0!
b10 #
0A
15
0;
16
1H
0I
0,
1+
1>
1(
1F
1D
0<
1I
0H
1G
1E
1'
1*
0+
1,
0%
0)
0=
#300000
1!
b11 #
1;
1A
1B
0I
1H
1+
0,
#400000
b111 #
b101 #
0!
b100 #
0A
05
17
0;
18
06
0B
1I
1,
0>
0(
0F
0D
1<
0I
0H
0E
0'
0+
0,
1%
1)
1=
1@
1&
1D
0?
1H
0G
1E
1'
0*
1+
0%
#500000
1!
b101 #
1;
1A
1I
1,
#600000
b111 #
0!
b110 #
0A
15
0;
16
0H
1G
0I
0,
1*
0+
1>
1(
0<
1I
1H
0G
0E
0'
0*
1+
1,
0=
#700000
1!
b111 #
1;
1A
1B
0I
0H
1G
1*
0+
0,
#800000
b1111 #
b1011 #
b1001 #
0!
b1000 #
0A
05
07
19
0;
1:
08
06
0B
1I
1,
0>
0(
1<
0I
1H
1E
1'
1+
0,
1=
0@
0&
1F
0D
1?
0H
0G
0E
1C
1$
0'
0*
0+
1%
0)
#900000
1!
b1001 #
1;
1A
1I
1,
